{
    "word": "David",
    "total": "Total: 3",
    "students": [
        {
            "name": "David Guetta",
            "email": "dgueta@gtmail.com",
            "age": 30,
            "weight": 69,
            "feet_tall": 1.70
        },
        {
            "name": "David Boiwe",
            "email": "dboiwe@gtmail.com",
            "age": 35,
            "weight": 70,
            "feet_tall": 1.80
        },
        {
            "name": "David Beckham",
            "email": "dbackham@gtmail.com",
            "age": 32,
            "weight": 71,
            "feet_tall": 1.77
        }
    ]
}